bandit,arm
1,4
2,3
3,2
4,1
5,1
6,2
7,3
8,2
9,4
10,1
11,3
12,3
13,3
14,3
15,4
16,4
17,1
18,2
19,3
20,1
21,4
22,4
23,1
24,1
25,2
26,3
27,4
28,2
29,1
30,4
31,2
32,4
33,1
34,2
35,1
36,3
37,4
38,4
39,3
40,4
41,2
42,1
43,2
44,4
45,3
46,3
47,4
48,4
49,3
50,3
51,4
52,3
53,1
54,3
55,3
56,2
57,1
58,2
59,2
60,2
61,1
62,2
63,4
64,1
65,4
66,3
67,4
68,4
69,3
70,4
71,4
72,4
73,1
74,4
75,2
76,2
77,1
78,1
79,2
80,2
81,2
82,3
83,3
84,2
85,3
86,4
87,2
88,4
89,2
90,1
91,2
92,3
93,4
94,3
95,1
96,2
97,2
98,3
99,3
100,2
101,4
102,4
103,4
104,4
105,3
106,3
107,1
108,3
109,1
110,3
111,2
112,1
113,2
114,3
115,2
116,2
117,2
118,3
119,3
120,3
121,3
122,4
123,1
124,1
125,1
126,3
127,4
128,1
129,3
130,4
131,3
132,2
133,4
134,1
135,2
136,2
137,3
138,2
139,3
140,1
141,3
142,1
143,1
144,4
145,2
146,1
147,4
148,3
149,2
150,1
151,2
152,2
153,3
154,4
155,1
156,2
157,2
158,4
159,4
160,3
161,2
162,2
163,2
164,4
165,4
166,2
167,4
168,2
169,1
170,3
171,4
172,2
173,2
174,3
175,1
176,4
177,4
178,2
179,4
180,4
181,1
182,2
183,3
184,1
185,1
186,4
187,4
188,3
189,2
190,1
191,4
192,2
193,4
194,1
195,3
196,1
197,2
198,2
199,2
200,4
201,2
202,3
203,2
204,2
205,3
206,2
207,1
208,3
209,3
210,4
211,4
212,2
213,1
214,3
215,3
216,2
217,2
218,4
219,2
220,4
221,2
222,2
223,3
224,3
225,2
226,2
227,4
228,4
229,4
230,1
231,4
232,1
233,2
234,1
235,4
236,4
237,3
238,1
239,4
240,1
241,1
242,2
243,3
244,2
245,1
246,2
247,4
248,2
249,4
250,1
251,4
252,2
253,1
254,1
255,4
256,1
257,4
258,3
259,3
260,1
261,1
262,4
263,3
264,1
265,3
266,3
267,2
268,1
269,2
270,2
271,2
272,2
273,2
274,2
275,1
276,2
277,3
278,4
279,2
280,3
281,4
282,3
283,1
284,2
285,3
286,1
287,1
288,2
289,3
290,2
291,3
292,3
293,2
294,2
295,1
296,3
297,1
298,4
299,3
300,2
301,3
302,3
303,1
304,1
305,1
306,1
307,3
308,2
309,2
310,3
311,3
312,3
313,1
314,1
315,4
316,3
317,4
318,4
319,4
320,3
321,3
322,2
323,2
324,4
325,3
326,3
327,3
328,4
329,3
330,4
331,3
332,2
333,2
334,4
335,1
336,3
337,3
338,4
339,3
340,2
341,1
342,4
343,1
344,2
345,3
346,1
347,3
348,3
349,1
350,2
351,1
352,4
353,1
354,1
355,3
356,3
357,2
358,4
359,3
360,2
361,1
362,1
363,2
364,4
365,1
366,4
367,3
368,2
369,2
370,3
371,4
372,3
373,4
374,2
375,1
376,3
377,2
378,2
379,1
380,2
381,4
382,1
383,1
384,1
385,3
386,3
387,3
388,3
389,3
390,2
391,1
392,4
393,2
394,2
395,3
396,3
397,1
398,4
399,4
400,2
401,2
402,3
403,2
404,4
405,1
406,4
407,3
408,3
409,1
410,2
411,4
412,3
413,1
414,4
415,4
416,3
417,1
418,2
419,4
420,4
421,1
422,2
423,1
424,3
425,1
426,3
427,3
428,2
429,1
430,3
431,2
432,4
433,2
434,3
435,1
436,4
437,3
438,1
439,3
440,4
441,2
442,4
443,3
444,3
445,4
446,4
447,2
448,2
449,2
450,4
451,1
452,4
453,2
454,2
455,4
456,3
457,1
458,2
459,4
460,1
461,1
462,3
463,4
464,4
465,1
466,2
467,1
468,2
469,2
470,2
471,2
472,3
473,3
474,2
475,3
476,1
477,2
478,1
479,3
480,3
481,1
482,1
483,2
484,1
485,3
486,3
487,1
488,3
489,1
490,1
491,3
492,2
493,4
494,1
495,3
496,2
497,3
498,1
499,4
500,4
